﻿<?xml version="1.0" encoding="UTF-8"?>
<svg width="11px" height="14px" viewBox="0 0 11 14" version="1.1" xmlns="http://www.w3.org/2000/svg" xmlns:xlink="http://www.w3.org/1999/xlink">
    <!-- Generator: Sketch 42 (36781) - http://www.bohemiancoding.com/sketch -->
    <title>ic_delete</title>
    <desc>Created with Sketch.</desc>
    <defs></defs>
    <g id="Symbols" stroke="none" stroke-width="1" fill="none" fill-rule="evenodd" opacity="0.599999964">
        <g id="ic_bin" transform="translate(-7.000000, -5.000000)">
            <g id="ic_delete">
                <g id="Icon-24px">
                    <path d="M7.78571429,17.4444444 C7.78571429,18.3 8.49285714,19 9.35714286,19 L15.6428571,19 C16.5071429,19 17.2142857,18.3 17.2142857,17.4444444 L17.2142857,8.11111111 L7.78571429,8.11111111 L7.78571429,17.4444444 L7.78571429,17.4444444 Z M18,5.77777778 L15.25,5.77777778 L14.4642857,5 L10.5357143,5 L9.75,5.77777778 L7,5.77777778 L7,7.33333333 L18,7.33333333 L18,5.77777778 L18,5.77777778 Z" id="Shape" fill="#999999"></path>
                    <polygon id="Shape" points="0 0 24 0 24 24 0 24"></polygon>
                </g>
            </g>
        </g>
    </g>
</svg>