﻿<?xml version="1.0" encoding="UTF-8"?>
<svg width="12px" height="12px" viewBox="0 0 12 12" version="1.1" xmlns="http://www.w3.org/2000/svg" xmlns:xlink="http://www.w3.org/1999/xlink">
    <!-- Generator: Sketch 42 (36781) - http://www.bohemiancoding.com/sketch -->
    <title>ic_terminated</title>
    <desc>Created with Sketch.</desc>
    <defs>
        <path d="M8,2 C4.688,2 2,4.688 2,8 C2,11.312 4.688,14 8,14 C11.312,14 14,11.312 14,8 C14,4.688 11.312,2 8,2 L8,2 Z" id="path-1"></path>
        <mask id="mask-2" maskContentUnits="userSpaceOnUse" maskUnits="objectBoundingBox" x="0" y="0" width="12" height="12" fill="white">
            <use xlink:href="#path-1"></use>
        </mask>
    </defs>
    <g id="Symbols" stroke="none" stroke-width="1" fill="none" fill-rule="evenodd">
        <g id="icon/terminated" transform="translate(-2.000000, -2.000000)">
            <g id="ic_terminated">
                <g id="Icon-24px">
                    <polygon id="Shape" points="0 0 16 0 16 16 0 16"></polygon>
                    <use id="Shape" stroke="#E84F4F" mask="url(#mask-2)" stroke-width="4" xlink:href="#path-1"></use>
                    <rect id="Rectangle" fill="#E84F4F" transform="translate(8.000000, 8.000000) rotate(-45.000000) translate(-8.000000, -8.000000) " x="3" y="7" width="10" height="2"></rect>
                </g>
            </g>
        </g>
    </g>
</svg>