<?xml version="1.0" encoding="UTF-8" standalone="no"?>
<svg width="20px" height="20px" viewBox="0 0 20 20" version="1.1" xmlns="http://www.w3.org/2000/svg" xmlns:xlink="http://www.w3.org/1999/xlink">
    <!-- Generator: Sketch 40.2 (33826) - http://www.bohemiancoding.com/sketch -->
    <title>ic_info_24px</title>
    <desc>Created with Sketch.</desc>
    <defs></defs>
    <g id="VMO" stroke="none" stroke-width="1" fill="none" fill-rule="evenodd">
        <g id="Check-In-Modal" transform="translate(-291.000000, -303.000000)">
            <g id="Check-in" transform="translate(38.000000, 19.000000)">
                <g id="Visitor-Nav" transform="translate(0.000000, 174.000000)">
                    <g id="Rectangle-16-Copy-+-Group-Copy-3" transform="translate(0.000000, 96.000000)">
                        <g id="ic_info_24px" transform="translate(251.000000, 12.000000)">
                            <polygon id="Shape" points="0 0 24 0 24 24 0 24"></polygon>
                            <path d="M12,2 C6.48,2 2,6.48 2,12 C2,17.52 6.48,22 12,22 C17.52,22 22,17.52 22,12 C22,6.48 17.52,2 12,2 L12,2 Z M13,17 L11,17 L11,11 L13,11 L13,17 L13,17 Z M13,9 L11,9 L11,7 L13,7 L13,9 L13,9 Z" id="Shape" fill="#FF8C00"></path>
                        </g>
                    </g>
                </g>
            </g>
        </g>
    </g>
</svg>