﻿<?xml version="1.0" encoding="UTF-8"?>
<svg width="14px" height="14px" viewBox="0 0 14 14" version="1.1" xmlns="http://www.w3.org/2000/svg" xmlns:xlink="http://www.w3.org/1999/xlink">
    <!-- Generator: Sketch 42 (36781) - http://www.bohemiancoding.com/sketch -->
    <title>icon/info form</title>
    <desc>Created with Sketch.</desc>
    <defs></defs>
    <g id="Symbols" stroke="none" stroke-width="1" fill="none" fill-rule="evenodd">
        <g id="icon/info-form" transform="translate(-1.000000, -1.000000)">
            <g>
                <polygon id="bounds" points="16 0 0 0 0 16 16 16"></polygon>
                <path d="M7.3,11.5 L8.7,11.5 L8.7,7.3 L7.3,7.3 L7.3,11.5 Z M8,1 C4.15,1 1,4.15 1,8 C1,11.85 4.15,15 8,15 C11.85,15 15,11.85 15,8 C15,4.15 11.85,1 8,1 Z M8,13.6 C4.92,13.6 2.4,11.08 2.4,8 C2.4,4.92 4.92,2.4 8,2.4 C11.08,2.4 13.6,4.92 13.6,8 C13.6,11.08 11.08,13.6 8,13.6 Z M7.3,5.9 L8.7,5.9 L8.7,4.5 L7.3,4.5 L7.3,5.9 Z" id="Shape" fill="#888B94"></path>
            </g>
        </g>
    </g>
</svg>