<?xml version="1.0" encoding="UTF-8" standalone="no"?>
<svg width="62px" height="23px" viewBox="0 0 62 23" version="1.1" xmlns="http://www.w3.org/2000/svg" xmlns:xlink="http://www.w3.org/1999/xlink">
    <!-- Generator: Sketch 39.1 (31720) - http://www.bohemiancoding.com/sketch -->
    <title>SAFE</title>
    <desc>Created with Sketch.</desc>
    <defs></defs>
    <g id="Symbols" stroke="none" stroke-width="1" fill="none" fill-rule="evenodd">
        <g id="app-bar" transform="translate(-73.000000, -19.000000)" fill="#FFFFFF">
            <path d="M73.312,39.976 C74.496,40.68 76.864,41.32 79.136,41.32 C84.704,41.32 87.328,38.312 87.328,34.856 C87.328,31.752 85.504,29.864 81.76,28.456 C78.88,27.336 77.632,26.568 77.632,24.904 C77.632,23.656 78.72,22.312 81.216,22.312 C83.232,22.312 84.736,22.92 85.504,23.336 L86.464,20.168 C85.344,19.592 83.616,19.08 81.28,19.08 C76.608,19.08 73.664,21.768 73.664,25.288 C73.664,28.392 75.936,30.28 79.488,31.56 C82.24,32.552 83.328,33.512 83.328,35.144 C83.328,36.904 81.92,38.088 79.392,38.088 C77.376,38.088 75.456,37.448 74.176,36.712 L73.312,39.976 Z M100.181333,34.888 L102.133333,41 L106.357333,41 L99.3493334,19.432 L94.3253334,19.432 L87.4133334,41 L91.4773334,41 L93.3333334,34.888 L100.181333,34.888 Z M93.9733334,31.912 L95.6373334,26.6 C96.0213334,25.32 96.3413334,23.816 96.6613334,22.568 L96.7253334,22.568 C97.0453334,23.816 97.3973334,25.288 97.8133334,26.6 L99.5093334,31.912 L93.9733334,31.912 Z M107.498667,41 L111.434667,41 L111.434667,31.848 L119.370667,31.848 L119.370667,28.616 L111.434667,28.616 L111.434667,22.664 L119.946667,22.664 L119.946667,19.432 L107.498667,19.432 L107.498667,41 Z M133.984,28.232 L125.856,28.232 L125.856,22.664 L134.464,22.664 L134.464,19.432 L121.92,19.432 L121.92,41 L134.944,41 L134.944,37.768 L125.856,37.768 L125.856,31.432 L133.984,31.432 L133.984,28.232 Z" id="SAFE"></path>
        </g>
    </g>
</svg>