<?xml version="1.0" encoding="UTF-8" standalone="no"?>
<svg width="61px" height="22px" viewBox="0 0 61 22" version="1.1" xmlns="http://www.w3.org/2000/svg" xmlns:xlink="http://www.w3.org/1999/xlink">
    <!-- Generator: Sketch 39.1 (31720) - http://www.bohemiancoding.com/sketch -->
    <title>Group</title>
    <desc>Created with Sketch.</desc>
    <defs></defs>
    <g id="Page-1" stroke="none" stroke-width="1" fill="none" fill-rule="evenodd">
        <g id="Selection" transform="translate(-485.000000, -35.000000)" fill="#FFFFFF">
            <g id="Group" transform="translate(485.000000, 35.000000)">
                <path d="M0.678332837,20.07 C1.81833284,20.7 4.09833284,21.3 6.40833284,21.3 C11.9583328,21.3 14.5683328,18.42 14.5683328,15.03 C14.5683328,12.18 12.8883328,10.32 9.31833284,9 C6.70833284,8.01 5.56833284,7.44 5.56833284,6.15 C5.56833284,5.1 6.52833284,4.2 8.50833284,4.2 C10.4883328,4.2 11.9283328,4.77 12.7383328,5.16 L13.7583328,1.47 C12.5583328,0.93 10.8783328,0.45 8.59833284,0.45 C3.82833284,0.45 0.948332837,3.09 0.948332837,6.54 C0.948332837,9.48 3.13833284,11.34 6.49833284,12.51 C8.92833284,13.38 9.88833284,14.1 9.88833284,15.36 C9.88833284,16.68 8.77833284,17.55 6.67833284,17.55 C4.72833284,17.55 2.83833284,16.92 1.60833284,16.29 L0.678332837,20.07 Z M26.158333,15.81 L27.718333,21 L32.638333,21 L26.368333,0.78 L20.368333,0.78 L14.188333,21 L18.928333,21 L20.368333,15.81 L26.158333,15.81 Z M21.028333,12.39 L22.228333,8.1 C22.558333,6.93 22.858333,5.4 23.158333,4.2 L23.218333,4.2 C23.518333,5.4 23.878333,6.9 24.238333,8.1 L25.498333,12.39 L21.028333,12.39 Z M33.3383331,21 L37.9283331,21 L37.9283331,12.87 L45.1883331,12.87 L45.1883331,9.15 L37.9283331,9.15 L37.9283331,4.53 L45.6983331,4.53 L45.6983331,0.78 L33.3383331,0.78 L33.3383331,21 Z M59.1783332,8.73 L51.7383332,8.73 L51.7383332,4.53 L59.6283332,4.53 L59.6283332,0.78 L47.1483332,0.78 L47.1483332,21 L60.0483332,21 L60.0483332,17.25 L51.7383332,17.25 L51.7383332,12.45 L59.1783332,12.45 L59.1783332,8.73 Z" id="SAFE"></path>
            </g>
        </g>
    </g>
</svg>